{
"作者": "cally",
"站名": "可可影视",
"请求头": "User-Agent$MOBILE_UA",
"编码": "UTF-8",
"图片代理": "0",
"主页url": "https://www.kkys02.com/",
"分类url": "https://www.kkys02.com/show/{cateId}-----{by}-{catePg}.html[https://www.kkys02.com/show/{cateId}------.html];;ak",
"分类": "电影&电视剧&综艺&动漫&短剧",
"分类值": "1&2&3&4&6",
"数组": "默认--/detail&&</a>||搜索--/detail&&</a>",
"标题": "默认--</div>*title\">&&<||搜索--title=\"&&\"",
"图片": "https://vres.bqpkk.cn/vod1/vod/+/vod1/vod/&&\"",
"副标题": "</span>*<span>&&</span>||搜索--tags\">&&</span>",
"链接": "/detail/+/&&\"",
"搜索请求头": "User-Agent$MOBILE_UA",
"搜索url": "/search?k={wd}&page={pg}",
"搜索模式": "1",
"搜索二次截取": "<div class=\"search-result-list fs-margin-section\">&&</a>",
"搜索数组": "<a&&<div class=\"search-result-item-main\">",
"搜索图片": "data-original=\"&&\"[替换:/vod1>>https://61.147.93.252:15002/vod1]",
"线路数组":"<a&&</a>[排序:独家>蓝光8>FF线路>蓝光7>蓝光2>蓝光2-1>蓝光2-2>XL线路>HN线路>SB线路]",
"线路标题": "</span>*>&&</span>",
"播放数组": "episode-list&&</div>",
"播放列表": "<a&&/a>",
"播放标题": ">&&<",
"播放链接": "href=\"&&\"",
"直接播放": "0",
"嗅探词": ".mp4#.m3u8",
"影片年代": "detail-tags-item\">&&</a>",
"影片地区": "----.html*>&&</a>",
"影片类型": "-----.html*>&&</div>",
"状态": "备注:</div>&&</div>",
"导演": "导演:</div>&&</div>",
"主演": "演员:</div>&&</div>",
"简介": "detail-desc\">&&</p>",
"排序": "综合$1#时间$2#人气$3#评分$4"
}