{
"作者": "叫我abc",
"站名": "好看短剧",
"请求头":"User-Agent$okhttp/3.15.0#PC_UA#accept$text/html",
"主页url": "https://duanju8.cc/",
"分类": "恋爱$lianai#反转$fanzhuan#悬疑$xuanyi#穿越$chuanyue#古装$guzhuang#都市$dushi",
"分类url": "https://duanju8.cc/type/{cateId}/page/{catePg}.html"
}